{
  "type": "service_account",
  "project_id": "heroesapp-1c67e",
  "private_key_id": "9582ac79554d4ee2a8d7620721d7c201c9d4fb77",
  "private_key": "-----BEGIN PRIVATE KEY-----\nMIIEvgIBADANBgkqhkiG9w0BAQEFAASCBKgwggSkAgEAAoIBAQD7GkMXDCoxUQ8J\nrp9bEmTJwS4C9IyYyoqQEunKC2Jnr/tHTDxEiupThxjif9WhpTrtsSjq+kbcMKlG\nOVx++bQkaKLDYVUlLQjgU8CiDgPuWOHys/2siA4t76nEiqAWULSHMWojdUbW4Tt+\nZqyHtBp2v40TNlQni26BfYhrzyfcXDVFaCCU0l6aRbj3K6pXU/AncLtHjTb7SbTU\nDxjAl3fxvOUivShb5tyijyDjyI9eDaZKSApX//D0p1lU/RSycF4ENrVXOrTRDS7+\nFWffIKBUCwjdEuYyYdxKGl01WBjrmJ6iW4o4dPxVSglLjMfGEm+zLMnuhzJKntRa\nW1dS0cO/AgMBAAECggEAOBVCBcxIQjKODsYLPo6Jp0w3yB4xptCaCRrIT8GiLXFv\nSJnc3hw+wQAsDS6rGsrqMft/HZhfqj9OF2qpX4zK8NTUAZpkJ4T69guOu0MxGpOM\nh6Yu0tGihR0ByG2D2ugUohtlztybQVQV8yHgiACwZnRbAH8CZcCtIkvU4+tlRkB6\nvbvGTu42uGj+hkh6a3x8CI25JpVTO8zZVuKB69sCuvQPL+T7fe3NtQSUb4ct2pVS\nzesc8qPRjgssy73CrLa6vE3hWXGlYlkucy/wWwaKXasPsLl7L8IAjO1qnXGOH6yT\nhDhLY+vKm6lmvURYOzNB5/0rhhqSAafFkbMFQk6CcQKBgQD+JsEbTkYeyL+vCIGg\ngousdKwJnUv8lPqsbgQV4T4rYIn/f/OxiOp4Stmb2xveCZD/8IXCUYI53b4M9nO5\nHNnv/7YKAQVyMG04crnKuJxBN5imm4aiP06EZvci+DnKcd9zqIujHoGedhAn3RNd\nVmQejfe1I7CqquhGzg7JaEcq7wKBgQD87dSohHEzDJBVGLedhTmainfryRSFFern\naxvdlm2jPrJUnX5U/hwCogQkzAdBJh6e03N6DtHwvJnmS1dOBZUKTTZjsd6jff6u\nFqCXTQfHi4OYhTqFmaq1QVgs+bzfUWymE/iAlXu6/qU/0YhIHxThmlT/v3WlTt0j\nohkRByY0MQKBgQDxzM1MvVvZTgWQ8fbiT1Gz8gz72LvCw7r68nDQoEwV2PNyMroX\n3ru1VwFSV1RcG53o411fU00i4OVAT/op1FlFDXSUcAROb+R6ICzDwoBnTA3f9XhS\nRQjez1ex3ZieE1kVIPY5a3zG1mzogF08IEWBDHDv1dTvi0sSkllfJecP4QKBgHSO\nQPabefL1cjnU1yC++Smvb833bv5ZeFPGtyOpI8MbrGBz53jRVSUddl1irGEoaOn2\nNXvlAng24ZEP3R62UdVaeZr9p8Sd1lRxVvYCaHhbYXxSwQI6K0G16CVpvNEIm9H4\n2AahXFBy8sHzFCNwN1YzocHtgBB6xEuccoK3UbKxAoGBALCRPpJjIqYl82KWzW31\nXwnecQJkGiMSBVVguWG62N3TW+KMK1+sHOYB28m9bhahin3m3EFgLCd8w2NSmZe1\nGWvc2UhJmabMTB0rzilORGbaG3Era+rzgFaBAIw+195jb3leBI8utNYQPTC3oVhU\nWI6A89xJIi05dKtu1Mz/82wr\n-----END PRIVATE KEY-----\n",
  "client_email": "firebase-adminsdk-5vq6i@heroesapp-1c67e.iam.gserviceaccount.com",
  "client_id": "109420386079072382734",
  "auth_uri": "https://accounts.google.com/o/oauth2/auth",
  "token_uri": "https://oauth2.googleapis.com/token",
  "auth_provider_x509_cert_url": "https://www.googleapis.com/oauth2/v1/certs",
  "client_x509_cert_url": "https://www.googleapis.com/robot/v1/metadata/x509/firebase-adminsdk-5vq6i%40heroesapp-1c67e.iam.gserviceaccount.com"
}
